<?xml version="1.0" encoding="utf-8"?>
<!-- Generator: Adobe Illustrator 19.1.0, SVG Export Plug-In . SVG Version: 6.00 Build 0)  -->
<svg version="1.1" id="Layer_1" xmlns="http://www.w3.org/2000/svg" xmlns:xlink="http://www.w3.org/1999/xlink" x="0px" y="0px"
	 viewBox="0 0 431.5200195 153.1200104" style="enable-background:new 0 0 431.5200195 153.1200104;" xml:space="preserve">
<image style="overflow:visible;" width="1798" height="638" xlink:href="TimesNew.png"  transform="matrix(0.24 0 0 0.24 0 0)">
</image>
</svg>
